-- Merging decision tree log ---
manifest
ADDED from C:\Users\utilisateur\Documents\EPSI B2\Stage\CFTC Application\cftc\android\app\src\main\AndroidManifest.xml:1:1-41:12
INJECTED from C:\Users\utilisateur\Documents\EPSI B2\Stage\CFTC Application\cftc\android\app\src\main\AndroidManifest.xml:1:1-41:12
INJECTED from C:\Users\utilisateur\Documents\EPSI B2\Stage\CFTC Application\cftc\android\app\src\main\AndroidManifest.xml:1:1-41:12
INJECTED from C:\Users\utilisateur\Documents\EPSI B2\Stage\CFTC Application\cftc\android\app\src\main\AndroidManifest.xml:1:1-41:12
MERGED from C:\Users\utilisateur\Documents\EPSI B2\Stage\CFTC Application\cftc\android\app\src\main\AndroidManifest.xml:1:1-41:12
MERGED from [:image_cropper] C:\Users\utilisateur\Documents\EPSI B2\Stage\CFTC Application\cftc\build\image_cropper\intermediates\library_manifest\debug\AndroidManifest.xml:2:1-7:12
MERGED from [:file_picker] C:\Users\utilisateur\Documents\EPSI B2\Stage\CFTC Application\cftc\build\file_picker\intermediates\library_manifest\debug\AndroidManifest.xml:2:1-9:12
MERGED from [:url_launcher] C:\Users\utilisateur\Documents\EPSI B2\Stage\CFTC Application\cftc\build\url_launcher\intermediates\library_manifest\debug\AndroidManifest.xml:2:1-14:12
MERGED from [:flutter_plugin_android_lifecycle] C:\Users\utilisateur\Documents\EPSI B2\Stage\CFTC Application\cftc\build\flutter_plugin_android_lifecycle\intermediates\library_manifest\debug\AndroidManifest.xml:2:1-7:12
MERGED from [:sqflite] C:\Users\utilisateur\Documents\EPSI B2\Stage\CFTC Application\cftc\build\sqflite\intermediates\library_manifest\debug\AndroidManifest.xml:2:1-7:12
MERGED from [:advance_pdf_viewer] C:\Users\utilisateur\Documents\EPSI B2\Stage\CFTC Application\cftc\build\advance_pdf_viewer\intermediates\library_manifest\debug\AndroidManifest.xml:2:1-7:12
MERGED from [:path_provider] C:\Users\utilisateur\Documents\EPSI B2\Stage\CFTC Application\cftc\build\path_provider\intermediates\library_manifest\debug\AndroidManifest.xml:2:1-7:12
MERGED from [:integration_test] C:\Users\utilisateur\Documents\EPSI B2\Stage\CFTC Application\cftc\build\integration_test\intermediates\library_manifest\debug\AndroidManifest.xml:7:1-12:12
MERGED from [com.github.yalantis:ucrop:2.2.6] C:\Users\utilisateur\.gradle\caches\transforms-2\files-2.1\0a8ed70bae6ce869762af7e6f8387957\jetified-ucrop-2.2.6\AndroidManifest.xml:2:1-11:12
MERGED from [androidx.appcompat:appcompat:1.1.0] C:\Users\utilisateur\.gradle\caches\transforms-2\files-2.1\f419bf2442c9ba50831eeba89000c9a9\appcompat-1.1.0\AndroidManifest.xml:17:1-24:12
MERGED from [androidx.fragment:fragment:1.1.0] C:\Users\utilisateur\.gradle\caches\transforms-2\files-2.1\2fd9120a6da4df3dbabdd40f6a2d8995\fragment-1.1.0\AndroidManifest.xml:17:1-24:12
MERGED from [androidx.viewpager:viewpager:1.0.0] C:\Users\utilisateur\.gradle\caches\transforms-2\files-2.1\eb26273f8f7192460456ce62b9bdf9ef\viewpager-1.0.0\AndroidManifest.xml:17:1-22:12
MERGED from [androidx.loader:loader:1.0.0] C:\Users\utilisateur\.gradle\caches\transforms-2\files-2.1\d9536c14ffde0b7289f12ba6def6bfa4\loader-1.0.0\AndroidManifest.xml:17:1-22:12
MERGED from [androidx.activity:activity:1.0.0] C:\Users\utilisateur\.gradle\caches\transforms-2\files-2.1\68dbf8ea01a1dbd974fc87b5753550f0\jetified-activity-1.0.0\AndroidManifest.xml:17:1-24:12
MERGED from [androidx.transition:transition:1.2.0-rc01] C:\Users\utilisateur\.gradle\caches\transforms-2\files-2.1\d5078cc89a8bdc4d1987941734141f10\transition-1.2.0-rc01\AndroidManifest.xml:17:1-24:12
MERGED from [androidx.drawerlayout:drawerlayout:1.0.0] C:\Users\utilisateur\.gradle\caches\transforms-2\files-2.1\a71638e40cbd9c9c6e5d2d7449ca53dd\drawerlayout-1.0.0\AndroidManifest.xml:17:1-22:12
MERGED from [androidx.customview:customview:1.0.0] C:\Users\utilisateur\.gradle\caches\transforms-2\files-2.1\bc28a09d8d2212ffd5788fe6c1853326\customview-1.0.0\AndroidManifest.xml:17:1-22:12
MERGED from [androidx.appcompat:appcompat-resources:1.1.0] C:\Users\utilisateur\.gradle\caches\transforms-2\files-2.1\f3e56fdd8e4787bcbe0cb7f18c677775\jetified-appcompat-resources-1.1.0\AndroidManifest.xml:17:1-24:12
MERGED from [androidx.vectordrawable:vectordrawable-animated:1.1.0] C:\Users\utilisateur\.gradle\caches\transforms-2\files-2.1\a59d1de1f299e68c5b049a432ccfd655\vectordrawable-animated-1.1.0\AndroidManifest.xml:17:1-24:12
MERGED from [androidx.vectordrawable:vectordrawable:1.1.0] C:\Users\utilisateur\.gradle\caches\transforms-2\files-2.1\42415d22b488b741b7e8fbc712464c00\vectordrawable-1.1.0\AndroidManifest.xml:17:1-24:12
MERGED from [androidx.core:core:1.1.0] C:\Users\utilisateur\.gradle\caches\transforms-2\files-2.1\2e94107f30f39be366a17347c2bf100b\core-1.1.0\AndroidManifest.xml:17:1-26:12
MERGED from [androidx.lifecycle:lifecycle-runtime:2.2.0] C:\Users\utilisateur\.gradle\caches\transforms-2\files-2.1\ca6b214160bd0909b103aa12202ef51c\lifecycle-runtime-2.2.0\AndroidManifest.xml:17:1-24:12
MERGED from [androidx.savedstate:savedstate:1.0.0] C:\Users\utilisateur\.gradle\caches\transforms-2\files-2.1\2271d874344878e62b9a8e309af0c39d\jetified-savedstate-1.0.0\AndroidManifest.xml:17:1-24:12
MERGED from [androidx.lifecycle:lifecycle-livedata:2.0.0] C:\Users\utilisateur\.gradle\caches\transforms-2\files-2.1\fb333fb43575d8a3b51161295454427f\lifecycle-livedata-2.0.0\AndroidManifest.xml:17:1-22:12
MERGED from [androidx.lifecycle:lifecycle-livedata-core:2.0.0] C:\Users\utilisateur\.gradle\caches\transforms-2\files-2.1\cad25976877a6ae855ef6821534f58a1\lifecycle-livedata-core-2.0.0\AndroidManifest.xml:17:1-22:12
MERGED from [androidx.test:rules:1.2.0] C:\Users\utilisateur\.gradle\caches\transforms-2\files-2.1\1cbd41b62c7c7397e3c1ec08caa5e7cb\rules-1.2.0\AndroidManifest.xml:17:1-24:12
MERGED from [androidx.test.espresso:espresso-core:3.2.0] C:\Users\utilisateur\.gradle\caches\transforms-2\files-2.1\b57e330d5fcdd60ce3b36badc90dc06f\espresso-core-3.2.0\AndroidManifest.xml:17:1-24:12
MERGED from [androidx.test:runner:1.2.0] C:\Users\utilisateur\.gradle\caches\transforms-2\files-2.1\4aea98bec60149d37426ac7d3367a0ad\runner-1.2.0\AndroidManifest.xml:17:1-24:12
MERGED from [androidx.arch.core:core-runtime:2.0.0] C:\Users\utilisateur\.gradle\caches\transforms-2\files-2.1\5f606c30f064eed94124828de37fadc0\core-runtime-2.0.0\AndroidManifest.xml:17:1-22:12
MERGED from [androidx.versionedparcelable:versionedparcelable:1.1.0] C:\Users\utilisateur\.gradle\caches\transforms-2\files-2.1\96aee308bccd03bc62c306516c23a410\versionedparcelable-1.1.0\AndroidManifest.xml:17:1-27:12
MERGED from [androidx.exifinterface:exifinterface:1.1.0-beta01] C:\Users\utilisateur\.gradle\caches\transforms-2\files-2.1\32847c7914014c8c5fd20ad60d244752\exifinterface-1.1.0-beta01\AndroidManifest.xml:17:1-24:12
MERGED from [androidx.test:monitor:1.2.0] C:\Users\utilisateur\.gradle\caches\transforms-2\files-2.1\9fa135e36fbc0981dc10185b47173f5d\monitor-1.2.0\AndroidManifest.xml:17:1-24:12
MERGED from [androidx.lifecycle:lifecycle-viewmodel:2.1.0] C:\Users\utilisateur\.gradle\caches\transforms-2\files-2.1\15792e6083b2b5b5a7ffa285d47daa24\lifecycle-viewmodel-2.1.0\AndroidManifest.xml:17:1-22:12
MERGED from [androidx.cursoradapter:cursoradapter:1.0.0] C:\Users\utilisateur\.gradle\caches\transforms-2\files-2.1\c39070be4a8b092ae5970162a829e305\cursoradapter-1.0.0\AndroidManifest.xml:17:1-22:12
MERGED from [androidx.interpolator:interpolator:1.0.0] C:\Users\utilisateur\.gradle\caches\transforms-2\files-2.1\b962778313a0e23f9ca3dbafc012c1af\interpolator-1.0.0\AndroidManifest.xml:17:1-22:12
MERGED from [androidx.test.espresso:espresso-idling-resource:3.2.0] C:\Users\utilisateur\.gradle\caches\transforms-2\files-2.1\f0a1db59a6b3314bd2a76354ef8a570b\espresso-idling-resource-3.2.0\AndroidManifest.xml:17:1-24:12
INJECTED from C:\Users\utilisateur\Documents\EPSI B2\Stage\CFTC Application\cftc\android\app\src\debug\AndroidManifest.xml:1:1-7:12
INJECTED from C:\Users\utilisateur\Documents\EPSI B2\Stage\CFTC Application\cftc\android\app\src\debug\AndroidManifest.xml:1:1-7:12
INJECTED from C:\Users\utilisateur\Documents\EPSI B2\Stage\CFTC Application\cftc\android\app\src\debug\AndroidManifest.xml:1:1-7:12
	package
		ADDED from C:\Users\utilisateur\Documents\EPSI B2\Stage\CFTC Application\cftc\android\app\src\main\AndroidManifest.xml:2:5-31
		INJECTED from C:\Users\utilisateur\Documents\EPSI B2\Stage\CFTC Application\cftc\android\app\src\main\AndroidManifest.xml
		INJECTED from C:\Users\utilisateur\Documents\EPSI B2\Stage\CFTC Application\cftc\android\app\src\debug\AndroidManifest.xml
	android:versionName
		INJECTED from C:\Users\utilisateur\Documents\EPSI B2\Stage\CFTC Application\cftc\android\app\src\main\AndroidManifest.xml
		ADDED from C:\Users\utilisateur\Documents\EPSI B2\Stage\CFTC Application\cftc\android\app\src\main\AndroidManifest.xml:1:1-41:12
		INJECTED from C:\Users\utilisateur\Documents\EPSI B2\Stage\CFTC Application\cftc\android\app\src\debug\AndroidManifest.xml
	android:versionCode
		INJECTED from C:\Users\utilisateur\Documents\EPSI B2\Stage\CFTC Application\cftc\android\app\src\main\AndroidManifest.xml
		ADDED from C:\Users\utilisateur\Documents\EPSI B2\Stage\CFTC Application\cftc\android\app\src\main\AndroidManifest.xml:1:1-41:12
		INJECTED from C:\Users\utilisateur\Documents\EPSI B2\Stage\CFTC Application\cftc\android\app\src\debug\AndroidManifest.xml
	xmlns:android
		ADDED from C:\Users\utilisateur\Documents\EPSI B2\Stage\CFTC Application\cftc\android\app\src\main\AndroidManifest.xml:1:11-69
application
ADDED from C:\Users\utilisateur\Documents\EPSI B2\Stage\CFTC Application\cftc\android\app\src\main\AndroidManifest.xml:3:4-40:19
MERGED from [:url_launcher] C:\Users\utilisateur\Documents\EPSI B2\Stage\CFTC Application\cftc\build\url_launcher\intermediates\library_manifest\debug\AndroidManifest.xml:7:5-12:19
MERGED from [:url_launcher] C:\Users\utilisateur\Documents\EPSI B2\Stage\CFTC Application\cftc\build\url_launcher\intermediates\library_manifest\debug\AndroidManifest.xml:7:5-12:19
MERGED from [androidx.core:core:1.1.0] C:\Users\utilisateur\.gradle\caches\transforms-2\files-2.1\2e94107f30f39be366a17347c2bf100b\core-1.1.0\AndroidManifest.xml:24:5-89
MERGED from [androidx.core:core:1.1.0] C:\Users\utilisateur\.gradle\caches\transforms-2\files-2.1\2e94107f30f39be366a17347c2bf100b\core-1.1.0\AndroidManifest.xml:24:5-89
MERGED from [androidx.versionedparcelable:versionedparcelable:1.1.0] C:\Users\utilisateur\.gradle\caches\transforms-2\files-2.1\96aee308bccd03bc62c306516c23a410\versionedparcelable-1.1.0\AndroidManifest.xml:24:5-25:19
MERGED from [androidx.versionedparcelable:versionedparcelable:1.1.0] C:\Users\utilisateur\.gradle\caches\transforms-2\files-2.1\96aee308bccd03bc62c306516c23a410\versionedparcelable-1.1.0\AndroidManifest.xml:24:5-25:19
	android:appComponentFactory
		ADDED from [androidx.core:core:1.1.0] C:\Users\utilisateur\.gradle\caches\transforms-2\files-2.1\2e94107f30f39be366a17347c2bf100b\core-1.1.0\AndroidManifest.xml:24:18-86
	android:label
		ADDED from C:\Users\utilisateur\Documents\EPSI B2\Stage\CFTC Application\cftc\android\app\src\main\AndroidManifest.xml:4:9-29
	android:icon
		ADDED from C:\Users\utilisateur\Documents\EPSI B2\Stage\CFTC Application\cftc\android\app\src\main\AndroidManifest.xml:5:9-43
activity#com.example.cftc.MainActivity
ADDED from C:\Users\utilisateur\Documents\EPSI B2\Stage\CFTC Application\cftc\android\app\src\main\AndroidManifest.xml:6:9-34:20
	android:launchMode
		ADDED from C:\Users\utilisateur\Documents\EPSI B2\Stage\CFTC Application\cftc\android\app\src\main\AndroidManifest.xml:8:13-43
	android:hardwareAccelerated
		ADDED from C:\Users\utilisateur\Documents\EPSI B2\Stage\CFTC Application\cftc\android\app\src\main\AndroidManifest.xml:11:13-47
	android:windowSoftInputMode
		ADDED from C:\Users\utilisateur\Documents\EPSI B2\Stage\CFTC Application\cftc\android\app\src\main\AndroidManifest.xml:12:13-55
	android:configChanges
		ADDED from C:\Users\utilisateur\Documents\EPSI B2\Stage\CFTC Application\cftc\android\app\src\main\AndroidManifest.xml:10:13-163
	android:theme
		ADDED from C:\Users\utilisateur\Documents\EPSI B2\Stage\CFTC Application\cftc\android\app\src\main\AndroidManifest.xml:9:13-47
	android:name
		ADDED from C:\Users\utilisateur\Documents\EPSI B2\Stage\CFTC Application\cftc\android\app\src\main\AndroidManifest.xml:7:13-41
meta-data#io.flutter.embedding.android.NormalTheme
ADDED from C:\Users\utilisateur\Documents\EPSI B2\Stage\CFTC Application\cftc\android\app\src\main\AndroidManifest.xml:17:13-20:17
	android:resource
		ADDED from C:\Users\utilisateur\Documents\EPSI B2\Stage\CFTC Application\cftc\android\app\src\main\AndroidManifest.xml:19:15-52
	android:name
		ADDED from C:\Users\utilisateur\Documents\EPSI B2\Stage\CFTC Application\cftc\android\app\src\main\AndroidManifest.xml:18:15-70
meta-data#io.flutter.embedding.android.SplashScreenDrawable
ADDED from C:\Users\utilisateur\Documents\EPSI B2\Stage\CFTC Application\cftc\android\app\src\main\AndroidManifest.xml:26:13-29:17
	android:resource
		ADDED from C:\Users\utilisateur\Documents\EPSI B2\Stage\CFTC Application\cftc\android\app\src\main\AndroidManifest.xml:28:15-61
	android:name
		ADDED from C:\Users\utilisateur\Documents\EPSI B2\Stage\CFTC Application\cftc\android\app\src\main\AndroidManifest.xml:27:15-79
intent-filter#action:name:android.intent.action.MAIN+category:name:android.intent.category.LAUNCHER
ADDED from C:\Users\utilisateur\Documents\EPSI B2\Stage\CFTC Application\cftc\android\app\src\main\AndroidManifest.xml:30:13-33:29
action#android.intent.action.MAIN
ADDED from C:\Users\utilisateur\Documents\EPSI B2\Stage\CFTC Application\cftc\android\app\src\main\AndroidManifest.xml:31:17-68
	android:name
		ADDED from C:\Users\utilisateur\Documents\EPSI B2\Stage\CFTC Application\cftc\android\app\src\main\AndroidManifest.xml:31:25-66
category#android.intent.category.LAUNCHER
ADDED from C:\Users\utilisateur\Documents\EPSI B2\Stage\CFTC Application\cftc\android\app\src\main\AndroidManifest.xml:32:17-76
	android:name
		ADDED from C:\Users\utilisateur\Documents\EPSI B2\Stage\CFTC Application\cftc\android\app\src\main\AndroidManifest.xml:32:27-74
meta-data#flutterEmbedding
ADDED from C:\Users\utilisateur\Documents\EPSI B2\Stage\CFTC Application\cftc\android\app\src\main\AndroidManifest.xml:37:9-39:33
	android:value
		ADDED from C:\Users\utilisateur\Documents\EPSI B2\Stage\CFTC Application\cftc\android\app\src\main\AndroidManifest.xml:39:13-30
	android:name
		ADDED from C:\Users\utilisateur\Documents\EPSI B2\Stage\CFTC Application\cftc\android\app\src\main\AndroidManifest.xml:38:13-44
uses-sdk
INJECTED from C:\Users\utilisateur\Documents\EPSI B2\Stage\CFTC Application\cftc\android\app\src\main\AndroidManifest.xml reason: use-sdk injection requested
INJECTED from C:\Users\utilisateur\Documents\EPSI B2\Stage\CFTC Application\cftc\android\app\src\main\AndroidManifest.xml
INJECTED from C:\Users\utilisateur\Documents\EPSI B2\Stage\CFTC Application\cftc\android\app\src\main\AndroidManifest.xml
MERGED from [:image_cropper] C:\Users\utilisateur\Documents\EPSI B2\Stage\CFTC Application\cftc\build\image_cropper\intermediates\library_manifest\debug\AndroidManifest.xml:5:5-44
MERGED from [:image_cropper] C:\Users\utilisateur\Documents\EPSI B2\Stage\CFTC Application\cftc\build\image_cropper\intermediates\library_manifest\debug\AndroidManifest.xml:5:5-44
MERGED from [:file_picker] C:\Users\utilisateur\Documents\EPSI B2\Stage\CFTC Application\cftc\build\file_picker\intermediates\library_manifest\debug\AndroidManifest.xml:5:5-44
MERGED from [:file_picker] C:\Users\utilisateur\Documents\EPSI B2\Stage\CFTC Application\cftc\build\file_picker\intermediates\library_manifest\debug\AndroidManifest.xml:5:5-44
MERGED from [:url_launcher] C:\Users\utilisateur\Documents\EPSI B2\Stage\CFTC Application\cftc\build\url_launcher\intermediates\library_manifest\debug\AndroidManifest.xml:5:5-44
MERGED from [:url_launcher] C:\Users\utilisateur\Documents\EPSI B2\Stage\CFTC Application\cftc\build\url_launcher\intermediates\library_manifest\debug\AndroidManifest.xml:5:5-44
MERGED from [:flutter_plugin_android_lifecycle] C:\Users\utilisateur\Documents\EPSI B2\Stage\CFTC Application\cftc\build\flutter_plugin_android_lifecycle\intermediates\library_manifest\debug\AndroidManifest.xml:5:5-44
MERGED from [:flutter_plugin_android_lifecycle] C:\Users\utilisateur\Documents\EPSI B2\Stage\CFTC Application\cftc\build\flutter_plugin_android_lifecycle\intermediates\library_manifest\debug\AndroidManifest.xml:5:5-44
MERGED from [:sqflite] C:\Users\utilisateur\Documents\EPSI B2\Stage\CFTC Application\cftc\build\sqflite\intermediates\library_manifest\debug\AndroidManifest.xml:5:5-44
MERGED from [:sqflite] C:\Users\utilisateur\Documents\EPSI B2\Stage\CFTC Application\cftc\build\sqflite\intermediates\library_manifest\debug\AndroidManifest.xml:5:5-44
MERGED from [:advance_pdf_viewer] C:\Users\utilisateur\Documents\EPSI B2\Stage\CFTC Application\cftc\build\advance_pdf_viewer\intermediates\library_manifest\debug\AndroidManifest.xml:5:5-44
MERGED from [:advance_pdf_viewer] C:\Users\utilisateur\Documents\EPSI B2\Stage\CFTC Application\cftc\build\advance_pdf_viewer\intermediates\library_manifest\debug\AndroidManifest.xml:5:5-44
MERGED from [:path_provider] C:\Users\utilisateur\Documents\EPSI B2\Stage\CFTC Application\cftc\build\path_provider\intermediates\library_manifest\debug\AndroidManifest.xml:5:5-44
MERGED from [:path_provider] C:\Users\utilisateur\Documents\EPSI B2\Stage\CFTC Application\cftc\build\path_provider\intermediates\library_manifest\debug\AndroidManifest.xml:5:5-44
MERGED from [:integration_test] C:\Users\utilisateur\Documents\EPSI B2\Stage\CFTC Application\cftc\build\integration_test\intermediates\library_manifest\debug\AndroidManifest.xml:10:5-44
MERGED from [:integration_test] C:\Users\utilisateur\Documents\EPSI B2\Stage\CFTC Application\cftc\build\integration_test\intermediates\library_manifest\debug\AndroidManifest.xml:10:5-44
MERGED from [com.github.yalantis:ucrop:2.2.6] C:\Users\utilisateur\.gradle\caches\transforms-2\files-2.1\0a8ed70bae6ce869762af7e6f8387957\jetified-ucrop-2.2.6\AndroidManifest.xml:7:5-9:41
MERGED from [com.github.yalantis:ucrop:2.2.6] C:\Users\utilisateur\.gradle\caches\transforms-2\files-2.1\0a8ed70bae6ce869762af7e6f8387957\jetified-ucrop-2.2.6\AndroidManifest.xml:7:5-9:41
MERGED from [androidx.appcompat:appcompat:1.1.0] C:\Users\utilisateur\.gradle\caches\transforms-2\files-2.1\f419bf2442c9ba50831eeba89000c9a9\appcompat-1.1.0\AndroidManifest.xml:20:5-22:41
MERGED from [androidx.appcompat:appcompat:1.1.0] C:\Users\utilisateur\.gradle\caches\transforms-2\files-2.1\f419bf2442c9ba50831eeba89000c9a9\appcompat-1.1.0\AndroidManifest.xml:20:5-22:41
MERGED from [androidx.fragment:fragment:1.1.0] C:\Users\utilisateur\.gradle\caches\transforms-2\files-2.1\2fd9120a6da4df3dbabdd40f6a2d8995\fragment-1.1.0\AndroidManifest.xml:20:5-22:41
MERGED from [androidx.fragment:fragment:1.1.0] C:\Users\utilisateur\.gradle\caches\transforms-2\files-2.1\2fd9120a6da4df3dbabdd40f6a2d8995\fragment-1.1.0\AndroidManifest.xml:20:5-22:41
MERGED from [androidx.viewpager:viewpager:1.0.0] C:\Users\utilisateur\.gradle\caches\transforms-2\files-2.1\eb26273f8f7192460456ce62b9bdf9ef\viewpager-1.0.0\AndroidManifest.xml:20:5-44
MERGED from [androidx.viewpager:viewpager:1.0.0] C:\Users\utilisateur\.gradle\caches\transforms-2\files-2.1\eb26273f8f7192460456ce62b9bdf9ef\viewpager-1.0.0\AndroidManifest.xml:20:5-44
MERGED from [androidx.loader:loader:1.0.0] C:\Users\utilisateur\.gradle\caches\transforms-2\files-2.1\d9536c14ffde0b7289f12ba6def6bfa4\loader-1.0.0\AndroidManifest.xml:20:5-44
MERGED from [androidx.loader:loader:1.0.0] C:\Users\utilisateur\.gradle\caches\transforms-2\files-2.1\d9536c14ffde0b7289f12ba6def6bfa4\loader-1.0.0\AndroidManifest.xml:20:5-44
MERGED from [androidx.activity:activity:1.0.0] C:\Users\utilisateur\.gradle\caches\transforms-2\files-2.1\68dbf8ea01a1dbd974fc87b5753550f0\jetified-activity-1.0.0\AndroidManifest.xml:20:5-22:41
MERGED from [androidx.activity:activity:1.0.0] C:\Users\utilisateur\.gradle\caches\transforms-2\files-2.1\68dbf8ea01a1dbd974fc87b5753550f0\jetified-activity-1.0.0\AndroidManifest.xml:20:5-22:41
MERGED from [androidx.transition:transition:1.2.0-rc01] C:\Users\utilisateur\.gradle\caches\transforms-2\files-2.1\d5078cc89a8bdc4d1987941734141f10\transition-1.2.0-rc01\AndroidManifest.xml:20:5-22:41
MERGED from [androidx.transition:transition:1.2.0-rc01] C:\Users\utilisateur\.gradle\caches\transforms-2\files-2.1\d5078cc89a8bdc4d1987941734141f10\transition-1.2.0-rc01\AndroidManifest.xml:20:5-22:41
MERGED from [androidx.drawerlayout:drawerlayout:1.0.0] C:\Users\utilisateur\.gradle\caches\transforms-2\files-2.1\a71638e40cbd9c9c6e5d2d7449ca53dd\drawerlayout-1.0.0\AndroidManifest.xml:20:5-44
MERGED from [androidx.drawerlayout:drawerlayout:1.0.0] C:\Users\utilisateur\.gradle\caches\transforms-2\files-2.1\a71638e40cbd9c9c6e5d2d7449ca53dd\drawerlayout-1.0.0\AndroidManifest.xml:20:5-44
MERGED from [androidx.customview:customview:1.0.0] C:\Users\utilisateur\.gradle\caches\transforms-2\files-2.1\bc28a09d8d2212ffd5788fe6c1853326\customview-1.0.0\AndroidManifest.xml:20:5-44
MERGED from [androidx.customview:customview:1.0.0] C:\Users\utilisateur\.gradle\caches\transforms-2\files-2.1\bc28a09d8d2212ffd5788fe6c1853326\customview-1.0.0\AndroidManifest.xml:20:5-44
MERGED from [androidx.appcompat:appcompat-resources:1.1.0] C:\Users\utilisateur\.gradle\caches\transforms-2\files-2.1\f3e56fdd8e4787bcbe0cb7f18c677775\jetified-appcompat-resources-1.1.0\AndroidManifest.xml:20:5-22:41
MERGED from [androidx.appcompat:appcompat-resources:1.1.0] C:\Users\utilisateur\.gradle\caches\transforms-2\files-2.1\f3e56fdd8e4787bcbe0cb7f18c677775\jetified-appcompat-resources-1.1.0\AndroidManifest.xml:20:5-22:41
MERGED from [androidx.vectordrawable:vectordrawable-animated:1.1.0] C:\Users\utilisateur\.gradle\caches\transforms-2\files-2.1\a59d1de1f299e68c5b049a432ccfd655\vectordrawable-animated-1.1.0\AndroidManifest.xml:20:5-22:41
MERGED from [androidx.vectordrawable:vectordrawable-animated:1.1.0] C:\Users\utilisateur\.gradle\caches\transforms-2\files-2.1\a59d1de1f299e68c5b049a432ccfd655\vectordrawable-animated-1.1.0\AndroidManifest.xml:20:5-22:41
MERGED from [androidx.vectordrawable:vectordrawable:1.1.0] C:\Users\utilisateur\.gradle\caches\transforms-2\files-2.1\42415d22b488b741b7e8fbc712464c00\vectordrawable-1.1.0\AndroidManifest.xml:20:5-22:41
MERGED from [androidx.vectordrawable:vectordrawable:1.1.0] C:\Users\utilisateur\.gradle\caches\transforms-2\files-2.1\42415d22b488b741b7e8fbc712464c00\vectordrawable-1.1.0\AndroidManifest.xml:20:5-22:41
MERGED from [androidx.core:core:1.1.0] C:\Users\utilisateur\.gradle\caches\transforms-2\files-2.1\2e94107f30f39be366a17347c2bf100b\core-1.1.0\AndroidManifest.xml:20:5-22:41
MERGED from [androidx.core:core:1.1.0] C:\Users\utilisateur\.gradle\caches\transforms-2\files-2.1\2e94107f30f39be366a17347c2bf100b\core-1.1.0\AndroidManifest.xml:20:5-22:41
MERGED from [androidx.lifecycle:lifecycle-runtime:2.2.0] C:\Users\utilisateur\.gradle\caches\transforms-2\files-2.1\ca6b214160bd0909b103aa12202ef51c\lifecycle-runtime-2.2.0\AndroidManifest.xml:20:5-22:41
MERGED from [androidx.lifecycle:lifecycle-runtime:2.2.0] C:\Users\utilisateur\.gradle\caches\transforms-2\files-2.1\ca6b214160bd0909b103aa12202ef51c\lifecycle-runtime-2.2.0\AndroidManifest.xml:20:5-22:41
MERGED from [androidx.savedstate:savedstate:1.0.0] C:\Users\utilisateur\.gradle\caches\transforms-2\files-2.1\2271d874344878e62b9a8e309af0c39d\jetified-savedstate-1.0.0\AndroidManifest.xml:20:5-22:41
MERGED from [androidx.savedstate:savedstate:1.0.0] C:\Users\utilisateur\.gradle\caches\transforms-2\files-2.1\2271d874344878e62b9a8e309af0c39d\jetified-savedstate-1.0.0\AndroidManifest.xml:20:5-22:41
MERGED from [androidx.lifecycle:lifecycle-livedata:2.0.0] C:\Users\utilisateur\.gradle\caches\transforms-2\files-2.1\fb333fb43575d8a3b51161295454427f\lifecycle-livedata-2.0.0\AndroidManifest.xml:20:5-44
MERGED from [androidx.lifecycle:lifecycle-livedata:2.0.0] C:\Users\utilisateur\.gradle\caches\transforms-2\files-2.1\fb333fb43575d8a3b51161295454427f\lifecycle-livedata-2.0.0\AndroidManifest.xml:20:5-44
MERGED from [androidx.lifecycle:lifecycle-livedata-core:2.0.0] C:\Users\utilisateur\.gradle\caches\transforms-2\files-2.1\cad25976877a6ae855ef6821534f58a1\lifecycle-livedata-core-2.0.0\AndroidManifest.xml:20:5-44
MERGED from [androidx.lifecycle:lifecycle-livedata-core:2.0.0] C:\Users\utilisateur\.gradle\caches\transforms-2\files-2.1\cad25976877a6ae855ef6821534f58a1\lifecycle-livedata-core-2.0.0\AndroidManifest.xml:20:5-44
MERGED from [androidx.test:rules:1.2.0] C:\Users\utilisateur\.gradle\caches\transforms-2\files-2.1\1cbd41b62c7c7397e3c1ec08caa5e7cb\rules-1.2.0\AndroidManifest.xml:20:5-22:41
MERGED from [androidx.test:rules:1.2.0] C:\Users\utilisateur\.gradle\caches\transforms-2\files-2.1\1cbd41b62c7c7397e3c1ec08caa5e7cb\rules-1.2.0\AndroidManifest.xml:20:5-22:41
MERGED from [androidx.test.espresso:espresso-core:3.2.0] C:\Users\utilisateur\.gradle\caches\transforms-2\files-2.1\b57e330d5fcdd60ce3b36badc90dc06f\espresso-core-3.2.0\AndroidManifest.xml:20:5-22:41
MERGED from [androidx.test.espresso:espresso-core:3.2.0] C:\Users\utilisateur\.gradle\caches\transforms-2\files-2.1\b57e330d5fcdd60ce3b36badc90dc06f\espresso-core-3.2.0\AndroidManifest.xml:20:5-22:41
MERGED from [androidx.test:runner:1.2.0] C:\Users\utilisateur\.gradle\caches\transforms-2\files-2.1\4aea98bec60149d37426ac7d3367a0ad\runner-1.2.0\AndroidManifest.xml:20:5-22:41
MERGED from [androidx.test:runner:1.2.0] C:\Users\utilisateur\.gradle\caches\transforms-2\files-2.1\4aea98bec60149d37426ac7d3367a0ad\runner-1.2.0\AndroidManifest.xml:20:5-22:41
MERGED from [androidx.arch.core:core-runtime:2.0.0] C:\Users\utilisateur\.gradle\caches\transforms-2\files-2.1\5f606c30f064eed94124828de37fadc0\core-runtime-2.0.0\AndroidManifest.xml:20:5-44
MERGED from [androidx.arch.core:core-runtime:2.0.0] C:\Users\utilisateur\.gradle\caches\transforms-2\files-2.1\5f606c30f064eed94124828de37fadc0\core-runtime-2.0.0\AndroidManifest.xml:20:5-44
MERGED from [androidx.versionedparcelable:versionedparcelable:1.1.0] C:\Users\utilisateur\.gradle\caches\transforms-2\files-2.1\96aee308bccd03bc62c306516c23a410\versionedparcelable-1.1.0\AndroidManifest.xml:20:5-22:41
MERGED from [androidx.versionedparcelable:versionedparcelable:1.1.0] C:\Users\utilisateur\.gradle\caches\transforms-2\files-2.1\96aee308bccd03bc62c306516c23a410\versionedparcelable-1.1.0\AndroidManifest.xml:20:5-22:41
MERGED from [androidx.exifinterface:exifinterface:1.1.0-beta01] C:\Users\utilisateur\.gradle\caches\transforms-2\files-2.1\32847c7914014c8c5fd20ad60d244752\exifinterface-1.1.0-beta01\AndroidManifest.xml:20:5-22:41
MERGED from [androidx.exifinterface:exifinterface:1.1.0-beta01] C:\Users\utilisateur\.gradle\caches\transforms-2\files-2.1\32847c7914014c8c5fd20ad60d244752\exifinterface-1.1.0-beta01\AndroidManifest.xml:20:5-22:41
MERGED from [androidx.test:monitor:1.2.0] C:\Users\utilisateur\.gradle\caches\transforms-2\files-2.1\9fa135e36fbc0981dc10185b47173f5d\monitor-1.2.0\AndroidManifest.xml:20:5-22:41
MERGED from [androidx.test:monitor:1.2.0] C:\Users\utilisateur\.gradle\caches\transforms-2\files-2.1\9fa135e36fbc0981dc10185b47173f5d\monitor-1.2.0\AndroidManifest.xml:20:5-22:41
MERGED from [androidx.lifecycle:lifecycle-viewmodel:2.1.0] C:\Users\utilisateur\.gradle\caches\transforms-2\files-2.1\15792e6083b2b5b5a7ffa285d47daa24\lifecycle-viewmodel-2.1.0\AndroidManifest.xml:20:5-44
MERGED from [androidx.lifecycle:lifecycle-viewmodel:2.1.0] C:\Users\utilisateur\.gradle\caches\transforms-2\files-2.1\15792e6083b2b5b5a7ffa285d47daa24\lifecycle-viewmodel-2.1.0\AndroidManifest.xml:20:5-44
MERGED from [androidx.cursoradapter:cursoradapter:1.0.0] C:\Users\utilisateur\.gradle\caches\transforms-2\files-2.1\c39070be4a8b092ae5970162a829e305\cursoradapter-1.0.0\AndroidManifest.xml:20:5-44
MERGED from [androidx.cursoradapter:cursoradapter:1.0.0] C:\Users\utilisateur\.gradle\caches\transforms-2\files-2.1\c39070be4a8b092ae5970162a829e305\cursoradapter-1.0.0\AndroidManifest.xml:20:5-44
MERGED from [androidx.interpolator:interpolator:1.0.0] C:\Users\utilisateur\.gradle\caches\transforms-2\files-2.1\b962778313a0e23f9ca3dbafc012c1af\interpolator-1.0.0\AndroidManifest.xml:20:5-44
MERGED from [androidx.interpolator:interpolator:1.0.0] C:\Users\utilisateur\.gradle\caches\transforms-2\files-2.1\b962778313a0e23f9ca3dbafc012c1af\interpolator-1.0.0\AndroidManifest.xml:20:5-44
MERGED from [androidx.test.espresso:espresso-idling-resource:3.2.0] C:\Users\utilisateur\.gradle\caches\transforms-2\files-2.1\f0a1db59a6b3314bd2a76354ef8a570b\espresso-idling-resource-3.2.0\AndroidManifest.xml:20:5-22:41
MERGED from [androidx.test.espresso:espresso-idling-resource:3.2.0] C:\Users\utilisateur\.gradle\caches\transforms-2\files-2.1\f0a1db59a6b3314bd2a76354ef8a570b\espresso-idling-resource-3.2.0\AndroidManifest.xml:20:5-22:41
INJECTED from C:\Users\utilisateur\Documents\EPSI B2\Stage\CFTC Application\cftc\android\app\src\debug\AndroidManifest.xml
INJECTED from C:\Users\utilisateur\Documents\EPSI B2\Stage\CFTC Application\cftc\android\app\src\debug\AndroidManifest.xml
	android:targetSdkVersion
		INJECTED from C:\Users\utilisateur\Documents\EPSI B2\Stage\CFTC Application\cftc\android\app\src\main\AndroidManifest.xml
		INJECTED from C:\Users\utilisateur\Documents\EPSI B2\Stage\CFTC Application\cftc\android\app\src\debug\AndroidManifest.xml
	android:minSdkVersion
		INJECTED from C:\Users\utilisateur\Documents\EPSI B2\Stage\CFTC Application\cftc\android\app\src\main\AndroidManifest.xml
		INJECTED from C:\Users\utilisateur\Documents\EPSI B2\Stage\CFTC Application\cftc\android\app\src\debug\AndroidManifest.xml
uses-permission#android.permission.INTERNET
ADDED from C:\Users\utilisateur\Documents\EPSI B2\Stage\CFTC Application\cftc\android\app\src\debug\AndroidManifest.xml:6:5-66
	android:name
		ADDED from C:\Users\utilisateur\Documents\EPSI B2\Stage\CFTC Application\cftc\android\app\src\debug\AndroidManifest.xml:6:22-64
uses-permission#android.permission.READ_EXTERNAL_STORAGE
ADDED from [:file_picker] C:\Users\utilisateur\Documents\EPSI B2\Stage\CFTC Application\cftc\build\file_picker\intermediates\library_manifest\debug\AndroidManifest.xml:7:5-80
	android:name
		ADDED from [:file_picker] C:\Users\utilisateur\Documents\EPSI B2\Stage\CFTC Application\cftc\build\file_picker\intermediates\library_manifest\debug\AndroidManifest.xml:7:22-77
activity#io.flutter.plugins.urllauncher.WebViewActivity
ADDED from [:url_launcher] C:\Users\utilisateur\Documents\EPSI B2\Stage\CFTC Application\cftc\build\url_launcher\intermediates\library_manifest\debug\AndroidManifest.xml:8:9-11:74
	android:exported
		ADDED from [:url_launcher] C:\Users\utilisateur\Documents\EPSI B2\Stage\CFTC Application\cftc\build\url_launcher\intermediates\library_manifest\debug\AndroidManifest.xml:10:13-37
	android:theme
		ADDED from [:url_launcher] C:\Users\utilisateur\Documents\EPSI B2\Stage\CFTC Application\cftc\build\url_launcher\intermediates\library_manifest\debug\AndroidManifest.xml:11:13-71
	android:name
		ADDED from [:url_launcher] C:\Users\utilisateur\Documents\EPSI B2\Stage\CFTC Application\cftc\build\url_launcher\intermediates\library_manifest\debug\AndroidManifest.xml:9:13-74
